<svg width="12" height="20" viewBox="0 0 12 20" fill="none" xmlns="http://www.w3.org/2000/svg">
<path fill-rule="evenodd" clip-rule="evenodd" d="M0.756714 0.331029C1.12617 -0.0794815 1.75846 -0.11276 2.16897 0.256699L10.5172 7.77011C11.8413 8.96184 11.8414 11.0381 10.5172 12.2299L2.16897 19.7433C1.75846 20.1127 1.12617 20.0795 0.756714 19.669C0.387255 19.2584 0.420534 18.6262 0.831044 18.2567L9.17928 10.7433C9.62066 10.346 9.62066 9.65394 9.17928 9.2567L0.831044 1.74329C0.420534 1.37383 0.387255 0.741539 0.756714 0.331029Z" fill="black"/>
</svg>
